{
    "openapi": "3.0.0",
    "info": {
      "version": "1.0.0",
      "title": "API documentation Guros test",
      "description": "API in NodeJs"
    },
    "components":{
      "securitySchemes": {
        "ApiKeyAuth":{
          "type": "apiKey",
          "in": "header",
          "name": "authorization"
        }
      }
    },

    "paths": {
      "/users/": {
        "post": {
          "tags": [
            "Users"
          ],
          "summary": "Agregar usuario a la bd",
          "requestBody":{
            "required": "true",
            "content":{
              "application/json":{
  
                "schema": {
                  "$ref": "#/definitions/userCreate"
                }
              }
            }
          },
          "produces": [
            "application/json"
          ],
          "responses": {
            "200": {
              "description": "OK",
              "schema": {
                "$ref": "#/definitions/userCreate"
              }
            },
            "400": {
              "description": "Failed. Bad post data."
            }
          }
        }
      },
      "/users/login": {
        "post": {
          "tags": [
            "Users"
          ],
  
          "requestBody":{
            "required": "true",
            "content":{
              "application/json":{
  
                "schema": {
                  "$ref": "#/definitions/userLogin"
                }
              }
            }
          },
                  
          "summary": "LogIn propietario en la api",
  
          "produces": [
            "application/json"
          ],
          "responses": {
            "200": {
              "description": "OK",
              "schema": {
                "$ref": "#/definitions/userLogin"
              }
            },
            "400": {
              "description": "Failed. Bad post data."
            }
          }
        }
      },
      "/adn/mutation": {
        "post": {
          "tags": [
            "calculate mutation"
          ],
          "security": [
            {
              "ApiKeyAuth": []
            }
          ],
         
          "requestBody":{
            "required": "true",
            "content":{
              "application/json":{
                "schema": {
                  "$ref": "#/definitions/mutation"
                }
              }
            }
          },
          
          "produces": [
            "application/json"
          ],
          "responses": {
            "200": {
              "description": "OK"
            },
            "400": {
              "description": "Failed. Bad post data."
            }
          }
        }
      },
      "/adn/stats": {
        "get": {
          "tags": [
            "calculate mutation stats"
          ],
          "security": [
            {
              "ApiKeyAuth": []
            }
          ],
         
          
          "produces": [
            "application/json"
          ],
          "responses": {
            "200": {
              "description": "OK"
            },
            "400": {
              "description": "Failed. Bad post data."
            }
          }
        }
      }
    }, 
    "definitions": {
      "id": {
        "properties": {
          "id": {
            "type": "string"
          }
        }
      },
      "email": {
        "properties": {
          "email": {
            "type": "string"
          }
        }
      },
      "userCreate": {
        "type": "object",
        "properties": {
          "name": {
            "type": "string"
          },
          "email": {
            "type": "string"
          },
          "password": {
            "type": "string"
          }
        }
      },
      "userLogin": {
        "type": "object",
        "properties": {
          "email": {
            "type": "string"
          },
          "password": {
            "type": "string"
          }
        }
      },
      "mutation": {
        "type": "object",
        "properties": {
          "dna": {
            "type": "array",
            "items": {
              "type": "string"
            },
            "default": ["ATGCGA", "CAGTGC", "TTATGT", "AGAAGG", "CCCCTA", "TCACTG"],
            "minItems": 2
          }
        }
      }
    }
}